%YAML 1.1
%TAG !u! tag:unity3d.com,2011:
--- !u!1 &271769124410406725
GameObject:
  m_ObjectHideFlags: 0
  m_CorrespondingSourceObject: {fileID: 0}
  m_PrefabInstance: {fileID: 0}
  m_PrefabAsset: {fileID: 0}
  serializedVersion: 6
  m_Component:
  - component: {fileID: 271769124410406730}
  - component: {fileID: 271769124318009963}
  m_Layer: 0
  m_Name: Path
  m_TagString: Untagged
  m_Icon: {fileID: 0}
  m_NavMeshLayer: 0
  m_StaticEditorFlags: 0
  m_IsActive: 1
--- !u!4 &271769124410406730
Transform:
  m_ObjectHideFlags: 0
  m_CorrespondingSourceObject: {fileID: 0}
  m_PrefabInstance: {fileID: 0}
  m_PrefabAsset: {fileID: 0}
  m_GameObject: {fileID: 271769124410406725}
  m_LocalRotation: {x: 0, y: 0, z: 0, w: 1}
  m_LocalPosition: {x: 0, y: 0, z: 0}
  m_LocalScale: {x: 25, y: 25, z: 25}
  m_Children: []
  m_Father: {fileID: 0}
  m_RootOrder: 0
  m_LocalEulerAnglesHint: {x: 0, y: 0, z: 0}
--- !u!114 &271769124318009963
MonoBehaviour:
  m_ObjectHideFlags: 0
  m_CorrespondingSourceObject: {fileID: 0}
  m_PrefabInstance: {fileID: 0}
  m_PrefabAsset: {fileID: 0}
  m_GameObject: {fileID: 271769124410406725}
  m_Enabled: 1
  m_EditorHideFlags: 0
  m_Script: {fileID: 11500000, guid: 8e5ac92bc18f545cc84cd886ece82b4d, type: 3}
  m_Name: 
  m_EditorClassIdentifier: 
  editorData:
    _bezierPath:
      points:
      - {x: -8.866415, y: 16.866295, z: -4.560947}
      - {x: -5.345686, y: 18.655437, z: -3.8278518}
      - {x: -1.4836273, y: -1.9993178, z: 20.05433}
      - {x: 2.5171294, y: -0.47540978, z: 18.337215}
      - {x: 5.9463224, y: 0.54876494, z: 17.191591}
      - {x: 8.531571, y: 14.977624, z: -4.7502294}
      - {x: 6.1821494, y: 16.399427, z: -4.5935693}
      - {x: 2.764947, y: 18.46742, z: -4.3657093}
      - {x: -6.0742908, y: 6.8595386, z: 13.086784}
      - {x: -3.9120069, y: -1.8236694, z: 13.1231575}
      - {x: -2.7740152, y: -7.604788, z: 12.868479}
      - {x: 6.741165, y: -23.696754, z: -3.6592188}
      - {x: 8.759913, y: -21.149878, z: -4.4252977}
      - {x: 10.874418, y: -18.482193, z: -5.2277145}
      - {x: 5.3215284, y: -3.9134572, z: 18.069609}
      - {x: 2.5708892, y: 0.57056355, z: 18.372797}
      - {x: 0.7241588, y: 4.8025928, z: 18.654768}
      - {x: -11.949101, y: 15.299753, z: -5.2028317}
      isClosed: 1
      space: 0
      controlMode: 2
      autoControlLength: 0.3
      boundsUpToDate: 0
      bounds:
        m_Center: {x: 0, y: 0, z: 0}
        m_Extent: {x: 0, y: 0, z: 0}
      perAnchorNormalsAngle:
      - 0
      - 0
      - 0
      - 0
      - 0
      - 0
      globalNormalsAngle: 0
      flipNormals: 0
    vertexPathUpToDate: 1
    vertexPathMaxAngleError: 0.3
    vertexPathMinVertexSpacing: 0.132
    showTransformTool: 1
    showPathBounds: 0
    showPerSegmentBounds: 0
    displayAnchorPoints: 1
    displayControlPoints: 1
    bezierHandleScale: 1
    globalDisplaySettingsFoldout: 0
    keepConstantHandleSize: 1
    showNormalsInVertexMode: 1
    showBezierPathInVertexMode: 1
    showDisplayOptions: 1
    showPathOptions: 1
    showVertexPathDisplayOptions: 1
    showVertexPathOptions: 1
    showNormals: 1
    showNormalsHelpInfo: 0
    tabIndex: 1
  initialized: 1
