%YAML 1.1
%TAG !u! tag:unity3d.com,2011:
--- !u!1 &7222291961265912918
GameObject:
  m_ObjectHideFlags: 0
  m_CorrespondingSourceObject: {fileID: 0}
  m_PrefabInstance: {fileID: 0}
  m_PrefabAsset: {fileID: 0}
  serializedVersion: 6
  m_Component:
  - component: {fileID: 7222291961265912887}
  m_Layer: 0
  m_Name: sulEvent-ad
  m_TagString: Untagged
  m_Icon: {fileID: 0}
  m_NavMeshLayer: 0
  m_StaticEditorFlags: 0
  m_IsActive: 1
--- !u!4 &7222291961265912887
Transform:
  m_ObjectHideFlags: 0
  m_CorrespondingSourceObject: {fileID: 0}
  m_PrefabInstance: {fileID: 0}
  m_PrefabAsset: {fileID: 0}
  m_GameObject: {fileID: 7222291961265912918}
  m_LocalRotation: {x: 0, y: 0, z: 0, w: 1}
  m_LocalPosition: {x: 0, y: 0, z: 0}
  m_LocalScale: {x: 1, y: 1, z: 1}
  m_ConstrainProportionsScale: 0
  m_Children:
  - {fileID: 3162157238578959084}
  m_Father: {fileID: 0}
  m_RootOrder: 7
  m_LocalEulerAnglesHint: {x: 0, y: 0, z: 0}
--- !u!1001 &4642498675627076887
PrefabInstance:
  m_ObjectHideFlags: 0
  serializedVersion: 2
  m_Modification:
    serializedVersion: 2
    m_TransformParent: {fileID: 7222291961265912887}
    m_Modifications:
    - target: {fileID: 7750495619000678632, guid: 0cffa7d1529464eaf9d6eecf13368b29, type: 3}
      propertyPath: m_IsActive
      value: 1
      objectReference: {fileID: 0}
    - target: {fileID: 7750495619000678636, guid: 0cffa7d1529464eaf9d6eecf13368b29, type: 3}
      propertyPath: m_LocalPosition.y
      value: 0.259
      objectReference: {fileID: 0}
    - target: {fileID: 7750495619000678636, guid: 0cffa7d1529464eaf9d6eecf13368b29, type: 3}
      propertyPath: m_LocalPosition.z
      value: 0.027
      objectReference: {fileID: 0}
    - target: {fileID: 7750495620246029029, guid: 0cffa7d1529464eaf9d6eecf13368b29, type: 3}
      propertyPath: m_Size.y
      value: 0.6187514
      objectReference: {fileID: 0}
    - target: {fileID: 7750495620246029029, guid: 0cffa7d1529464eaf9d6eecf13368b29, type: 3}
      propertyPath: m_Size.z
      value: 0.6656703
      objectReference: {fileID: 0}
    - target: {fileID: 7750495620246029029, guid: 0cffa7d1529464eaf9d6eecf13368b29, type: 3}
      propertyPath: m_Center.y
      value: 0.006364346
      objectReference: {fileID: 0}
    - target: {fileID: 7750495620246029029, guid: 0cffa7d1529464eaf9d6eecf13368b29, type: 3}
      propertyPath: m_Center.z
      value: 0.16716489
      objectReference: {fileID: 0}
    - target: {fileID: 7750495620544915947, guid: 0cffa7d1529464eaf9d6eecf13368b29, type: 3}
      propertyPath: m_LocalPosition.y
      value: 0.259
      objectReference: {fileID: 0}
    - target: {fileID: 7750495620544915947, guid: 0cffa7d1529464eaf9d6eecf13368b29, type: 3}
      propertyPath: m_LocalPosition.z
      value: 0.026842104
      objectReference: {fileID: 0}
    - target: {fileID: 7750495620675469304, guid: 0cffa7d1529464eaf9d6eecf13368b29, type: 3}
      propertyPath: m_Name
      value: parent-tracking-sg
      objectReference: {fileID: 0}
    - target: {fileID: 7750495620675469307, guid: 0cffa7d1529464eaf9d6eecf13368b29, type: 3}
      propertyPath: m_RootOrder
      value: 7
      objectReference: {fileID: 0}
    - target: {fileID: 7750495620675469307, guid: 0cffa7d1529464eaf9d6eecf13368b29, type: 3}
      propertyPath: m_LocalPosition.x
      value: 0
      objectReference: {fileID: 0}
    - target: {fileID: 7750495620675469307, guid: 0cffa7d1529464eaf9d6eecf13368b29, type: 3}
      propertyPath: m_LocalPosition.y
      value: 0
      objectReference: {fileID: 0}
    - target: {fileID: 7750495620675469307, guid: 0cffa7d1529464eaf9d6eecf13368b29, type: 3}
      propertyPath: m_LocalPosition.z
      value: -0.0005263146
      objectReference: {fileID: 0}
    - target: {fileID: 7750495620675469307, guid: 0cffa7d1529464eaf9d6eecf13368b29, type: 3}
      propertyPath: m_LocalRotation.w
      value: 0.7071068
      objectReference: {fileID: 0}
    - target: {fileID: 7750495620675469307, guid: 0cffa7d1529464eaf9d6eecf13368b29, type: 3}
      propertyPath: m_LocalRotation.x
      value: 0.7071068
      objectReference: {fileID: 0}
    - target: {fileID: 7750495620675469307, guid: 0cffa7d1529464eaf9d6eecf13368b29, type: 3}
      propertyPath: m_LocalRotation.y
      value: 0
      objectReference: {fileID: 0}
    - target: {fileID: 7750495620675469307, guid: 0cffa7d1529464eaf9d6eecf13368b29, type: 3}
      propertyPath: m_LocalRotation.z
      value: 0
      objectReference: {fileID: 0}
    - target: {fileID: 7750495620675469307, guid: 0cffa7d1529464eaf9d6eecf13368b29, type: 3}
      propertyPath: m_LocalEulerAnglesHint.x
      value: 90
      objectReference: {fileID: 0}
    - target: {fileID: 7750495620675469307, guid: 0cffa7d1529464eaf9d6eecf13368b29, type: 3}
      propertyPath: m_LocalEulerAnglesHint.y
      value: 0
      objectReference: {fileID: 0}
    - target: {fileID: 7750495620675469307, guid: 0cffa7d1529464eaf9d6eecf13368b29, type: 3}
      propertyPath: m_LocalEulerAnglesHint.z
      value: 0
      objectReference: {fileID: 0}
    m_RemovedComponents: []
    m_AddedGameObjects: []
  m_SourcePrefab: {fileID: 100100000, guid: 0cffa7d1529464eaf9d6eecf13368b29, type: 3}
--- !u!4 &3162157238578959084 stripped
Transform:
  m_CorrespondingSourceObject: {fileID: 7750495620675469307, guid: 0cffa7d1529464eaf9d6eecf13368b29, type: 3}
  m_PrefabInstance: {fileID: 4642498675627076887}
  m_PrefabAsset: {fileID: 0}
