# This file uses centimeters as units for non-parametric coordinates.

v -0.254779 0.204133 0.370079
v -0.240536 -0.133987 0.441646
v 0.130332 0.191757 0.408600
v -0.082507 0.534550 0.283925
v -0.112458 -0.199524 0.480138
v 0.013674 -0.114341 0.474088
v 0.335783 -0.070572 0.274569
v 0.314871 0.213711 0.301791
v 0.280527 0.436231 0.169849
v 0.374006 0.098138 0.257051
v 0.464715 0.132701 -0.236988
v 0.302254 0.444881 -0.046887
v 0.417380 0.165961 -0.354855
v 0.404800 -0.136196 -0.222694
v 0.293291 -0.040724 -0.493245
v 0.325256 0.054893 -0.491714
v 0.340157 -0.126467 0.216820
v 0.080102 -0.164168 -0.557951
v 0.105145 0.135901 -0.561023
v -0.085237 0.127458 -0.603071
v -0.000635 0.217229 -0.575105
v -0.014441 -0.215785 -0.575518
v -0.138062 -0.152954 -0.606017
v -0.525780 -0.192688 -0.413230
v -0.408426 0.141737 -0.466567
v -0.434284 0.244594 -0.372214
v -0.579250 -0.178006 -0.367020
v -0.445462 0.316628 -0.301149
v -0.639714 -0.084146 -0.168460
v -0.651331 -0.006647 -0.090053
v -0.531425 -0.168178 0.187178
v -0.462398 0.242785 0.191947
v -0.653305 -0.055559 0.066574
v -0.642925 0.006514 0.079578
v -0.069906 0.962989 -0.039535
v 0.455968 0.197301 -0.277182
v 0.288409 0.468358 -0.137437
v 0.253562 0.460985 -0.232433
v 0.127497 0.474431 -0.307127
v -0.016562 0.538166 -0.338482
v -0.033521 -0.756306 0.107888
v -0.459683 -0.303907 -0.288823
v -0.153713 0.814632 0.019238
v -0.173169 0.811176 -0.038219
v -0.084324 0.834354 0.063388
v -0.165835 0.805988 -0.101943
v 0.015508 0.858730 0.013569
v -0.008543 0.847227 -0.096960
v 0.022206 0.858153 -0.047265
v -0.049880 0.835210 -0.129559
v -0.098849 -0.690655 0.118508
v -0.050417 -0.682364 0.161618
v -0.018311 -0.679053 0.168843
v 0.035195 -0.671755 0.126435
v 0.037233 -0.670237 0.119082
v 0.039466 -0.675483 0.048843
v 0.003114 -0.682929 0.017578
v -0.096870 -0.695897 0.045768
v -0.023597 -0.682955 0.004593
v -0.036645 -0.678122 0.168853
vt 0.448990 0.414191
vt 0.431807 0.378315
vt 0.486715 0.386235
vt 0.487568 0.436247
vt 0.455817 0.360884
vt 0.438203 0.363770
vt 0.341168 0.724087
vt 0.378540 0.743185
vt 0.371982 0.774195
vt 0.347359 0.769640
vt 0.412536 0.810620
vt 0.382245 0.803660
vt 0.380156 0.763144
vt 0.431800 0.770853
vt 0.462864 0.761312
vt 0.445337 0.773498
vt 0.432119 0.741788
vt 0.464777 0.750413
vt 0.386032 0.737588
vt 0.483104 0.731219
vt 0.486405 0.769135
vt 0.507385 0.727888
vt 0.506902 0.764843
vt 0.498352 0.778674
vt 0.491524 0.722053
vt 0.285313 0.376627
vt 0.329361 0.395544
vt 0.306207 0.423946
vt 0.268836 0.411467
vt 0.335344 0.399408
vt 0.311560 0.439851
vt 0.355048 0.412862
vt 0.315573 0.450875
vt 0.362302 0.422563
vt 0.421046 0.434965
vt 0.393847 0.396806
vt 0.384702 0.422020
vt 0.380924 0.415671
vt 0.903687 0.005819
vt 0.918613 0.039221
vt 0.901697 0.114579
vt 0.894836 0.113358
vt 0.949165 0.048091
vt 0.940044 0.091134
vt 0.909189 0.120775
vt 0.337986 0.819496
vt 0.436503 0.776938
vt 0.426876 0.812524
vt 0.442330 0.811821
vt 0.861690 0.049978
vt 0.884092 0.004883
vt 0.887456 0.113636
vt 0.891397 0.794220
vt 0.919670 0.758412
vt 0.935750 0.816051
vt 0.924197 0.821838
vt 0.955315 0.762400
vt 0.966820 0.764599
vt 0.949314 0.817506
vt 0.942712 0.815903
vt 0.944966 0.758798
vt 0.258271 0.422817
vt 0.462329 0.816832
vt 0.478505 0.826665
vt 0.986830 0.792861
vt 0.954985 0.819976
vt 0.979518 0.775875
vt 0.262873 0.470736
vt 0.895706 0.134408
vt 0.879806 0.125455
vt 0.382320 0.316750
vt 0.389706 0.313968
vt 0.394524 0.659795
vt 0.401583 0.663690
vt 0.402519 0.663939
vt 0.411660 0.663445
vt 0.417243 0.660615
vt 0.282676 0.358866
vt 0.340777 0.380431
vt 0.613426 0.062345
vt 0.616277 0.072682
vt 0.607916 0.073394
vt 0.364466 0.310380
vt 0.373383 0.316151
vt 0.444771 0.028063
vt 0.457057 0.035983
vt 0.454465 0.038209
vt 0.391517 0.313272
vt 0.392833 0.311599
vt 0.623801 0.067093
vt 0.622345 0.068242
vt 0.441796 0.040595
vt 0.440993 0.040201
vt 0.940854 0.831852
vt 0.844303 0.103004
vt 0.435390 0.034634
vt 0.449865 0.041370
vt 0.599874 0.067824
vt 0.420487 0.659041
vt 0.624540 0.065114
f 1/1 2/2 3/3 4/4
f 6/5 3/3 2/2 5/6
f 6/7 7/8 8/9 3/10
f 12/11 9/12 10/13 11/14
f 16/15 13/16 14/17 15/18
f 17/19 14/17 10/13 7/8
f 15/18 18/20 19/21 16/15
f 23/22 20/23 21/24 22/25
f 19/21 18/20 22/25 21/24
f 23/26 24/27 25/28 20/29
f 27/30 26/31 25/28 24/27
f 29/32 28/33 26/31 27/30
f 30/34 28/33 29/32
f 32/35 31/36 2/2 1/1
f 34/37 33/38 31/36 32/35
f 34/39 32/40 43/41 44/42
f 1/43 4/44 45/45 43/41 32/40
f 3/10 8/9 9/12 4/46
f 10/13 9/12 8/9
f 10/13 8/9 7/8
f 14/17 13/16 36/47 11/14
f 11/14 10/13 14/17
f 36/47 37/48 12/11 11/14
f 36/47 13/16 38/49 37/48
f 33/38 34/37 30/34 29/32
f 28/50 30/51 34/39 44/42 46/52
f 4/53 9/54 47/55 45/56
f 37/57 38/58 48/59 49/60
f 9/54 12/61 37/57 49/60 47/55
f 20/29 25/28 26/31 21/62
f 13/16 16/15 39/63 38/49
f 16/15 19/21 39/63
f 19/21 21/24 40/64 39/63
f 40/65 50/66 48/59 38/58 39/67
f 28/33 40/68 21/62 26/31
f 35/69 50/70 46/52
f 2/2 31/36 51/71 52/72
f 7/8 6/7 53/73 54/74
f 14/17 17/19 55/75 56/76
f 15/18 14/17 56/76 57/77
f 24/27 23/26 22/78 42/79
f 41/80 51/81 58/82
f 42/79 22/78 59/83 58/84
f 41/85 59/86 57/87
f 33/38 29/32 42/79 31/36
f 29/32 27/30 24/27 42/79
f 6/5 5/6 60/88 53/89
f 41/80 60/90 52/91
f 41/85 55/92 54/93
f 44/42 43/41 35/69
f 43/41 45/45 35/69
f 46/52 44/42 35/69
f 45/56 47/55 35/94
f 49/60 48/59 35/94
f 47/55 49/60 35/94
f 48/59 50/66 35/94
f 46/52 50/70 40/95 28/50
f 52/91 51/81 41/80
f 54/93 53/96 41/85
f 56/97 55/92 41/85
f 57/87 56/97 41/85
f 58/84 51/71 31/36 42/79
f 58/82 59/98 41/80
f 57/77 59/99 22/25 18/20 15/18
f 53/100 60/90 41/80
f 52/72 60/88 5/6 2/2
f 54/74 55/75 17/19 7/8
