# This file uses centimeters as units for non-parametric coordinates.

v 0.402786 2.235263 -1.169138
v 1.260519 2.119484 -0.161536
v 0.742784 -3.148105 -0.015482
v 0.302854 -2.940277 -0.856935
v -0.329400 -2.935196 -0.746994
v -0.603632 2.230647 -1.051015
v -0.813329 -2.851196 0.186469
v -0.898454 2.782074 -0.116107
v -0.309185 -3.324185 0.639184
v -0.495232 2.151180 1.044581
v 0.598307 -2.892939 0.589870
v 0.188971 2.261695 1.016500
v 1.250864 0.743914 0.109511
v 0.612084 1.307250 1.049303
v -0.366996 0.735134 0.998652
v -1.202118 0.707460 -0.099164
v -0.638096 0.068504 -0.943172
v 0.544594 -0.201603 -1.120709
v 0.432807 -2.237098 -0.926893
v -0.523069 -2.256589 -0.709639
v -0.918227 -2.341702 0.044827
v -0.289865 -2.408363 0.754019
v 0.552093 -2.379033 0.673323
v 0.910335 -2.231586 0.104383
v 0.015310 4.529719 0.002047
v 0.054026 4.088025 -0.323422
v 0.354313 4.079679 -0.015282
v -0.138125 4.133963 -0.260288
v -0.259071 4.126629 -0.045668
v -0.055369 4.111640 0.266069
v 0.184025 4.079440 0.243918
v 0.070786 -4.285994 -0.005050
v 0.314451 -3.977944 -0.059030
v 0.177309 -4.043391 -0.262526
v -0.067766 -4.093498 -0.214943
v -0.191501 -4.118232 -0.004819
v -0.098234 -4.115270 0.213007
v 0.233253 -4.000254 0.161648
v 1.355464 1.624963 0.128719
v 0.290214 1.752924 1.123800
v -0.452185 1.687571 1.033791
v -1.245579 1.629893 -0.157480
v -0.749847 1.734717 -1.066689
v 0.474791 1.459359 -1.216529
v -0.205493 4.133825 0.152347
v -0.869395 2.197623 0.797533
v -0.852933 1.493487 0.754666
v -0.862856 0.766041 0.656453
v -0.665330 -2.336477 0.528773
v -0.672252 -2.863080 0.453156
v -0.155392 -4.113042 0.117513
v 0.293406 4.087585 0.114816
v 0.760630 2.652765 0.437358
v 1.004300 1.693433 0.645146
v 0.986380 0.787295 0.543689
v 0.772971 -2.301581 0.378474
v 0.814211 -2.906562 0.141196
v 0.274579 -3.998342 0.059065
v 0.203021 -4.042529 -0.230123
v 0.415743 -3.277448 -0.662707
v 0.622137 -2.260680 -0.533913
v 0.687811 0.235088 -1.032126
v 0.900852 1.538977 -0.928086
v 0.975810 2.105241 -0.806499
v 0.256071 4.117709 -0.225224
v 1.300141 1.938690 -0.011449
v 0.893895 2.191642 0.561033
v 0.241477 2.010200 1.071650
v -1.222416 1.920710 -0.036891
v -0.666751 2.006195 -1.054070
v 0.437296 1.886240 -1.199115
v 0.965984 1.851793 -0.882091
v -0.128173 1.816069 1.183026
v 0.140800 1.740472 1.147924
v -0.087310 0.677756 1.103629
v -0.170388 -2.352803 0.769945
v 0.340434 -3.406759 0.539727
v 0.135560 -4.059191 0.224803
v -0.208903 4.136162 -0.159301
v -0.764341 2.511206 -0.592281
v -0.961913 1.969232 -0.555997
v -1.012820 1.684087 -0.621781
v -0.940709 0.384730 -0.533363
v -0.885878 -2.357441 -0.159544
v -0.754586 -2.834271 -0.256162
v -0.695763 -3.224452 -0.061528
v 0.165534 -4.242470 -0.047786
v 0.090364 -4.300025 -0.127969
v -0.012755 -4.335260 -0.096097
v -0.076126 -4.339732 -0.041777
v -0.025198 -4.291495 0.112349
v 0.143755 -4.210292 0.080268
v 0.100018 -4.230758 0.120960
v 0.148571 -4.248374 -0.095592
v 0.154252 -4.231502 0.007687
v -0.066060 -4.326759 0.024357
v -0.509851 -2.851686 -0.609269
v 0.044137 4.549976 -0.090474
v 0.108472 4.550819 -0.042172
v -0.003534 4.529749 -0.093012
v -0.067169 4.490257 0.016052
v 0.012198 4.491348 0.097296
v 0.069367 4.526607 0.064906
v 0.078063 4.557750 -0.086514
v 0.099442 4.539425 0.015215
v -0.033304 4.493231 0.089812
v -0.044050 4.511595 -0.058274
vt 0.143836 0.541974
vt 0.165948 0.632633
vt 0.121540 0.652520
vt 0.118511 0.544725
vt 0.228003 0.646109
vt 0.185463 0.634224
vt 0.196888 0.559901
vt 0.232294 0.561827
vt 0.265356 0.668266
vt 0.246785 0.657028
vt 0.256202 0.558287
vt 0.263740 0.558565
vt 0.316872 0.665652
vt 0.295289 0.668911
vt 0.283540 0.556742
vt 0.298830 0.551946
vt 0.080181 0.670904
vt 0.057060 0.647349
vt 0.067485 0.537206
vt 0.093932 0.538749
vt 0.103258 0.653274
vt 0.107331 0.541962
vt 0.120515 0.683561
vt 0.099049 0.685506
vt 0.046010 0.648442
vt 0.054110 0.689388
vt 0.041556 0.684595
vt 0.317660 0.701904
vt 0.299874 0.695574
vt 0.264836 0.700654
vt 0.246958 0.703305
vt 0.229178 0.705583
vt 0.184988 0.696661
vt 0.161230 0.681161
vt 0.204169 0.534758
vt 0.227357 0.536748
vt 0.251263 0.540958
vt 0.267809 0.539648
vt 0.278842 0.538073
vt 0.290876 0.519341
vt 0.090746 0.500695
vt 0.097956 0.520295
vt 0.116419 0.520265
vt 0.122064 0.511150
vt 0.147940 0.504330
vt 0.919901 0.673612
vt 0.943789 0.683236
vt 0.904889 0.752834
vt 0.897783 0.748170
vt 0.852803 0.872074
vt 0.884707 0.854032
vt 0.909568 0.925963
vt 0.902334 0.927846
vt 0.913977 0.925299
vt 0.903168 0.862483
vt 0.921743 0.871150
vt 0.918437 0.924678
vt 0.925613 0.926676
vt 0.958264 0.856401
vt 0.972998 0.863388
vt 0.931832 0.929572
vt 0.835803 0.688297
vt 0.860220 0.682671
vt 0.886501 0.748536
vt 0.878883 0.752909
vt 0.892586 0.748269
vt 0.891389 0.692930
vt 0.895674 0.767362
vt 0.894312 0.766128
vt 0.914456 0.941284
vt 0.913571 0.943029
vt 0.916051 0.940121
vt 0.921279 0.940477
vt 0.918711 0.939376
vt 0.890470 0.765616
vt 0.887988 0.765653
vt 0.892446 0.765708
vt 0.476512 0.327221
vt 0.482151 0.360393
vt 0.476709 0.365873
vt 0.454137 0.342261
vt 0.934526 0.474467
vt 0.942801 0.478433
vt 0.922431 0.520773
vt 0.903113 0.507780
vt 0.956260 0.478408
vt 0.959952 0.476910
vt 0.978819 0.504535
vt 0.972642 0.526178
vt 0.494311 0.363524
vt 0.490642 0.360603
vt 0.498641 0.316706
vt 0.501213 0.337422
vt 0.486668 0.360699
vt 0.480486 0.317244
vt 0.475474 0.366700
vt 0.483711 0.371714
vt 0.483208 0.374744
vt 0.944387 0.468306
vt 0.947487 0.470500
vt 0.951645 0.479390
vt 0.949986 0.471329
vt 0.952017 0.470937
vt 0.955218 0.469906
vt 0.491475 0.370109
vt 0.489520 0.369093
vt 0.487080 0.370151
vt 0.485162 0.370709
vt 0.124328 0.695123
vt 0.098308 0.703724
vt 0.041180 0.702395
vt 0.316848 0.719289
vt 0.300487 0.721954
vt 0.268841 0.710729
vt 0.248481 0.713893
vt 0.227710 0.715436
vt 0.187373 0.712731
vt 0.158156 0.692581
vt 0.952183 0.516082
vt 0.961871 0.529537
vt 0.068023 0.696637
vt 0.068791 0.686947
vt 0.440214 0.337999
vt 0.159659 0.541771
vt 0.157328 0.515703
vt 0.170214 0.616125
vt 0.179706 0.677496
vt 0.180390 0.693880
vt 0.960783 0.701773
vt 0.911439 0.757634
vt 0.098098 0.721557
vt 0.128974 0.702222
vt 0.067119 0.706230
vt 0.264769 0.743418
vt 0.245459 0.734205
vt 0.189787 0.725508
vt 0.226558 0.723717
vt 0.180322 0.706709
vt 0.155488 0.701801
vt 0.063555 0.686485
vt 0.063433 0.534665
vt 0.066716 0.501438
vt 0.500412 0.369863
vt 0.523611 0.345961
vt 0.235473 0.540123
vt 0.929331 0.526340
vt 0.944994 0.530068
vt 0.487899 0.373745
vt 0.949629 0.466162
vt 0.493645 0.374518
vt 0.891614 0.768756
vt 0.896223 0.768462
vt 0.917895 0.942779
vt 0.922219 0.941811
f 61/1 62/2 13/3 24/4
f 17/5 18/6 19/7 20/8
f 16/9 83/10 84/11 21/12
f 15/13 48/14 49/15 22/16
f 14/17 75/18 76/19 23/20
f 13/3 55/21 56/22 24/4
f 39/23 54/24 55/21 13/3
f 15/25 73/26 41/27
f 41/28 47/29 48/14 15/13
f 42/30 82/31 83/10 16/9
f 43/32 44/33 18/6 17/5
f 62/2 63/34 39/23 13/3
f 20/8 19/7 4/35 5/36
f 21/12 84/11 85/37 7/38
f 22/16 49/15 50/39 9/40
f 23/20 76/19 77/41 11/42
f 24/4 56/22 57/43 3/44
f 60/45 61/1 24/4 3/44
f 2/46 64/47 65/48 27/49
f 1/50 6/51 28/52 26/53
f 79/54 80/55 8/56 29/57
f 45/58 46/59 10/60 30/61
f 10/62 12/63 31/64 30/65
f 52/66 53/67 2/46 27/49
f 27/49 65/48 104/68 99/69
f 26/53 28/52 100/70 98/71
f 28/52 79/54 107/72 100/70
f 29/57 45/58 106/73 101/74
f 30/65 31/64 103/75 102/76
f 31/64 52/66 105/77 103/75
f 3/78 33/79 59/80 60/81
f 34/82 35/83 5/84 4/85
f 51/86 37/87 9/88 50/89
f 78/90 38/91 11/92 77/93
f 58/94 33/79 3/78 57/95
f 34/96 59/80 94/97 88/98
f 35/83 34/82 88/99 89/100
f 36/101 35/83 89/100 90/102
f 37/87 51/86 96/103 91/104
f 38/91 78/90 93/105 92/106
f 33/79 58/94 95/107 87/108
f 66/109 67/110 54/24 39/23
f 73/26 10/111 41/27
f 10/112 46/113 47/29 41/28
f 69/114 81/115 82/31 42/30
f 70/116 71/117 44/33 43/32
f 63/34 72/118 66/109 39/23
f 8/56 46/59 45/58 29/57
f 46/113 69/114 42/30 47/29
f 48/14 47/29 42/30 16/9
f 49/15 48/14 16/9 21/12
f 50/39 49/15 21/12 7/38
f 86/119 50/89 7/120
f 12/63 53/67 52/66 31/64
f 67/110 68/121 40/122 54/24
f 14/17 54/24 40/122
f 56/22 55/21 14/17 23/20
f 57/43 56/22 23/20 11/42
f 38/91 58/94 57/95 11/92
f 59/80 34/96 4/123 60/81
f 19/124 61/1 60/45 4/125
f 18/126 62/2 61/1 19/124
f 44/127 63/34 62/2 18/126
f 71/128 72/118 63/34 44/127
f 65/48 64/47 1/129 26/130
f 53/131 67/110 66/109 2/132
f 12/133 68/121 67/110 53/131
f 8/134 69/114 46/113
f 80/135 81/115 69/114 8/134
f 1/136 71/117 70/116 6/137
f 1/138 64/139 72/118 71/128
f 66/109 72/118 64/139 2/132
f 55/21 54/24 14/17
f 40/122 74/140 75/18 14/17
f 68/121 73/26 74/140 40/122
f 68/121 12/133 10/111 73/26
f 75/18 74/140 73/26 15/25
f 76/19 75/18 15/25 22/141
f 77/41 76/19 22/141 9/142
f 37/143 78/90 77/93 9/144
f 6/51 80/55 79/54 28/52
f 6/137 70/116 81/115 80/135
f 82/31 81/115 70/116 43/32
f 83/10 82/31 43/32 17/5
f 84/11 83/10 17/5 20/8
f 97/145 20/8 5/36
f 35/83 36/101 97/146 5/84
f 7/120 85/147 86/119
f 88/98 94/97 32/148
f 89/100 88/99 32/149
f 90/102 89/100 32/149
f 91/104 96/103 32/149
f 92/106 93/105 32/148
f 87/108 95/107 32/148
f 93/105 78/90 37/143 91/150
f 32/148 93/105 91/150
f 94/97 59/80 33/79 87/108
f 32/148 94/97 87/108
f 95/107 58/94 38/91 92/106
f 32/148 95/107 92/106
f 96/103 51/86 36/101 90/102
f 32/149 96/103 90/102
f 97/146 36/101 86/119 85/147
f 85/37 84/11 20/8 97/145
f 86/119 36/101 51/86 50/89
f 25/151 104/68 98/152
f 25/151 105/77 99/69
f 25/153 106/73 102/154
f 25/153 107/72 101/74
f 99/69 104/68 25/151
f 98/71 100/70 25/153
f 100/70 107/72 25/153
f 101/74 106/73 25/153
f 102/76 103/75 25/151
f 103/75 105/77 25/151
f 98/152 104/68 65/48 26/130
f 99/69 105/77 52/66 27/49
f 102/154 106/73 45/58 30/61
f 101/74 107/72 79/54 29/57
